<?xml version="1.0" encoding="UTF-8" standalone="no"?>
<svg width="291px" height="135px" viewBox="0 0 291 135" version="1.1" xmlns="http://www.w3.org/2000/svg" xmlns:xlink="http://www.w3.org/1999/xlink">
    <!-- Generator: Sketch 41.1 (35376) - http://www.bohemiancoding.com/sketch -->
    <title>Hello</title>
    <desc>Created with Sketch.</desc>
    <defs>
        <linearGradient x1="68.0393491%" y1="14.3100233%" x2="58.8144961%" y2="78.1975776%" id="linearGradient-1">
            <stop stop-color="#FFEDA8" offset="0%"></stop>
            <stop stop-color="#D0B742" offset="100%"></stop>
        </linearGradient>
    </defs>
    <g id="Designs" stroke="none" stroke-width="1" fill="none" fill-rule="evenodd">
        <g id="1280_homepage" transform="translate(-298.000000, -160.000000)" fill="url(#linearGradient-1)">
            <path d="M323.61113,285.683661 C315.109981,285.683661 308.275723,282.516567 307.108899,278.182647 C305.608696,272.348525 296.940857,273.848728 298.107682,279.849539 C300.274642,288.684067 310.942751,294.684879 323.77782,294.684879 C357.782418,294.684879 368.950594,271.681768 382.952488,241.177643 L385.286137,236.176967 C386.286272,234.010008 387.619786,233.176562 389.953434,233.176562 L434.626142,233.176562 C436.959791,233.176562 437.626547,234.010008 436.626412,236.176967 L424.291411,263.513997 C422.791208,267.01447 421.791073,270.014876 421.791073,272.848593 C421.791073,277.349201 423.791343,280.682985 426.458371,282.849945 C430.625601,286.183729 436.459723,281.516431 432.125804,276.682444 C430.958979,275.348931 430.79229,274.348795 430.79229,272.848593 C430.79229,271.515079 431.292358,269.348119 432.459182,266.847781 L464.796888,195.67149 C472.297902,179.335948 484.632904,168.667839 495.80108,168.667839 C505.302365,168.667839 508.636149,173.335136 508.636149,178.169123 C508.636149,182.002975 505.635744,187.33703 499.634932,187.837097 C493.967499,187.670408 493.80081,196.671625 499.634932,196.504936 C511.136487,196.171558 517.637366,186.003516 517.637366,178.169123 C517.637366,168.834528 511.303177,160 495.80108,160 C478.132025,160 464.630199,175.502096 455.462292,195.338112 L443.29398,221.508317 C442.460534,223.675277 440.960332,224.508723 438.626683,224.508723 L393.953975,224.508723 C391.620327,224.508723 391.120259,223.675277 392.120394,221.508317 L394.120665,217.174398 C400.454854,203.839261 406.288977,191.004192 413.95668,181.336218 C418.457289,182.503043 424.124722,183.836556 429.625466,183.836556 C437.626547,183.836556 444.627494,179.169259 444.627494,171.334866 C444.627494,166.167501 439.626818,161.500203 430.125533,161.500203 C423.791343,161.666892 417.457153,165.167365 411.623031,171.001488 C397.454449,167.334325 387.953164,164.833987 376.618298,164.833987 C331.278834,164.833987 308.275723,203.505883 308.275723,229.842777 C308.275723,248.17859 317.777008,265.347578 336.612889,273.015282 L336.446199,272.848593 C337.112956,273.34866 338.113091,273.34866 338.946537,273.34866 C341.446875,273.34866 343.613835,271.181701 343.613835,269.014741 C343.613835,267.01447 342.447011,265.347578 339.946673,264.347443 C325.444712,258.179942 317.276941,244.344738 317.276941,229.842777 C317.276941,206.839667 337.946402,174.001893 377.285055,174.001893 C385.619515,174.001893 395.620867,176.335542 404.622085,179.00257 C398.787962,187.503719 391.787016,200.838856 385.952894,213.840614 L382.45242,221.508317 C381.452285,223.675277 380.118771,224.508723 377.785122,224.508723 L374.451338,224.508723 C367.78377,224.508723 366.450256,233.176562 372.951135,233.176562 L373.617892,233.176562 C375.951541,233.176562 376.618298,234.010008 375.618163,236.176967 L374.618028,238.510616 C363.283161,264.347443 352.281674,285.850351 323.61113,285.683661 Z M429.792155,174.66865 C426.291681,174.66865 424.124722,174.335272 421.791073,173.501826 C424.624789,171.334866 427.625195,170.168042 430.292222,170.168042 C434.292763,170.168042 435.626277,171.001488 435.626277,172.001623 C435.626277,173.835204 432.625871,174.66865 429.792155,174.66865 Z M485.132971,234.176697 C481.965876,241.8444 478.132025,245.678252 472.464592,245.678252 C468.297361,245.678252 468.464051,243.011225 469.130807,241.344333 L471.297767,236.510346 C473.631416,231.176291 477.465268,224.342034 483.29939,225.17548 C488.300066,225.842236 486.299796,231.34298 485.132971,234.176697 Z M546.141221,270.348254 C546.141221,269.014741 546.641288,266.847781 547.641423,264.847511 L559.643046,239.177373 C561.476628,235.343521 565.810547,225.17548 573.47825,225.17548 C579.979129,225.17548 579.645751,230.176156 577.645481,234.676764 L565.643858,260.680281 C563.810276,264.514132 559.309668,274.348795 551.808654,274.348795 C548.47487,274.348795 546.141221,273.015282 546.141221,270.348254 Z M514.366363,261.069384 C514.345161,261.105934 514.324232,261.142921 514.303582,261.180348 C512.63669,264.514132 508.136082,274.348795 500.635067,274.348795 C494.300878,274.348795 495.634391,268.347984 497.467972,264.514132 L533.472841,186.336895 C536.973314,179.169259 528.138786,176.83561 525.30507,182.836421 L489.300201,260.84697 C486.633174,265.514267 479.13216,274.348795 469.297497,274.348795 C462.963307,274.182106 459.296144,271.34839 459.296144,266.014335 C459.296144,263.513997 460.12959,260.84697 461.963172,256.179672 C462.796618,254.012712 464.29682,253.512645 466.46378,254.179401 C467.297226,254.346091 468.797429,254.846158 471.297767,254.846158 C481.965876,254.846158 489.466891,249.012036 494.800945,235.010143 C495.634391,232.843183 496.134459,230.009467 496.134459,227.842507 C496.134459,220.84156 491.63385,216.507641 483.29939,216.507641 C471.631145,216.507641 464.963577,229.34271 462.463239,234.676764 L453.462022,253.679334 C451.128373,258.68001 449.794859,263.513997 449.794859,266.847781 C449.794859,277.51589 458.12932,283.016634 469.297497,283.016634 C476.215823,283.016634 482.623676,280.15799 487.730084,276.022651 C489.581773,280.756108 494.11944,283.016634 500.635067,283.016634 C505.508276,283.016634 509.859745,280.512284 513.419366,277.156014 C515.52287,281.11761 519.833181,283.016634 525.805137,283.016634 C530.747107,283.016634 535.152509,280.441113 538.73964,277.013441 C541.048299,281.033806 545.714658,283.016634 551.808654,283.016634 C564.143655,283.016634 570.811223,270.014876 573.311561,264.847511 L585.646562,238.677305 C586.980076,236.010278 588.146901,231.34298 588.146901,229.176021 C588.146901,220.674871 582.312778,216.507641 573.47825,216.507641 C561.143249,216.507641 554.475681,229.509399 551.975343,234.676764 L539.473652,261.013659 C539.310082,261.364167 539.146512,261.750707 538.986156,262.163178 C537.018628,266.117525 532.667501,274.348795 525.805137,274.348795 C519.470948,274.348795 520.804461,268.347984 522.638043,264.514132 L558.642911,186.336895 C562.143384,179.169259 553.308857,176.83561 550.47514,182.836421 L514.470271,260.84697 C514.435363,260.920666 514.400724,260.994814 514.366363,261.069384 Z" id="Hello"></path>
        </g>
    </g>
</svg>